…
# 1. Sampling 20 individuals, above 10kg and below 120cm, with a fixed dose of 
# 200mg, observing every 4 hours for one day and dosing at times 0, 5, and 12. 
# Note that the data has columns called "WT" and "HT".


inc <- "WT > 10 & HT < 120"
ot <- seq(0, 24, by = 4)
dt <- c(0, 5, 12)

df1 <- cohort(pop_example, include = inc, n = 20, obs_times = ot,
              dose_times = dt, amt = 200)
df1
#> # A tibble: 200 x 10
#>       ID  TIME  EVID   AMT    DV   TAD   SEX   AGE    WT    HT
#>    <dbl> <dbl> <dbl> <dbl> <dbl> <dbl> <dbl> <dbl> <dbl> <dbl>
#>  1 43966     0     1   200     0     0     1    24  12.3  84.4
#>  2 43966     0     0     0     0     0     1    24  12.3  84.4
#>  3 43966     4     0     0     0     4     1    24  12.3  84.4
#>  4 43966     5     1   200     0     0     1    24  12.3  84.4
#>  5 43966     8     0     0     0     3     1    24  12.3  84.4
#>  6 43966    12     1   200     0     0     1    24  12.3  84.4
#>  7 43966    12     0     0     0     0     1    24  12.3  84.4
#>  8 43966    16     0     0     0     4     1    24  12.3  84.4
#>  9 43966    20     0     0     0     8     1    24  12.3  84.4
#> 10 43966    24     0     0     0    12     1    24  12.3  84.4
#> # … with 190 more rows
```
…
